[
    {
        "Name": "sameshirt",
        "X": 150,
        "Y": 610.8095703125,
        "Scale": 0.24105754494667053,
        "Rotation": 0.0
    },
    {
        "Name": "artclock",
        "X": 1151,
        "Y": 0,
        "Scale": 0.3013100326061249,
        "Rotation": 0.0
    },
    {
        "Name": "whynotartmatt",
        "X": 0,
        "Y": 595.9848022460938,
        "Scale": 0.21833333373069763,
        "Rotation": 0.0
    },
    {
        "Name": "artmattcool",
        "X": 0,
        "Y": 0,
        "Scale": 0.8571428656578064,
        "Rotation": 0.0
    },
    {
        "Name": "art",
        "X": 910,
        "Y": 537,
        "Scale": 0.8904109597206116,
        "Rotation": 0.0
    },
    {
        "Name": "artmattchill",
        "X": 171,
        "Y": 658,
        "Scale": 0.11751151829957962,
        "Rotation": 0.0
    },
    {
        "Name": "artbam",
        "X": 1160,
        "Y": 138,
        "Scale": 0.1937086135149002,
        "Rotation": 0.0
    }
]
